type_id,type,transaction_type,transaction_op,k_symbol,loan_duration,loan_status
1,Prestamo,,,,12,A
2,Prestamo,,,,12,B
3,Prestamo,,,,12,C
4,Prestamo,,,,12,D
5,Prestamo,,,,24,A
6,Prestamo,,,,24,B
7,Prestamo,,,,24,C
8,Prestamo,,,,24,D
9,Prestamo,,,,36,A
10,Prestamo,,,,36,B
11,Prestamo,,,,36,C
12,Prestamo,,,,36,D
13,Prestamo,,,,48,A
14,Prestamo,,,,48,B
15,Prestamo,,,,48,C
16,Prestamo,,,,48,D
17,Prestamo,,,,60,A
18,Prestamo,,,,60,B
19,Prestamo,,,,60,C
20,Prestamo,,,,60,D
21,Order,,,,,
22,Order,,,Arrendamiento,,
23,Order,,,Hogar,,
24,Order,,,PagoPrestamo,,
25,Order,,,PagoSeguros,,
26,Transaccion,Credito,Coleccion de otro banco,,,
27,Transaccion,Credito,Credito en efectivo,,,
28,Transaccion,Credito,,PagoIntereses,,
29,Transaccion,Credito,Coleccion de otro banco,PensionVejez,,
30,Transaccion,Debito,Remesa a otro banco,,,
31,Transaccion,Debito,Retiro de tarjeta de credito,,,
32,Transaccion,Debito,Retiro en efectivo,,,
33,Transaccion,Debito,Remesa a otro banco,Hogar,,
34,Transaccion,Debito,Retiro en efectivo,Hogar,,
35,Transaccion,Debito,Retiro en efectivo,InteresSancionSaldoNegativo,,
36,Transaccion,Debito,Retiro en efectivo,PagoDeclaracion,,
37,Transaccion,Debito,Remesa a otro banco,PagoPrestamo,,
38,Transaccion,Debito,Remesa a otro banco,PagoSeguros,,
39,Transaccion,Debito,Retiro en efectivo,PagoSeguros,,
40,Transaccion,Retiro en Efectivo,Retiro en efectivo,,,
