district_id,unemployment_rate_95,unemployment_rate_96,entrepreneur_num1000,end_date,crimes_num_95,crimes_num_96,start_date,district_name,inhabitants_num,municipality_num499,municipality_num499_1999,municipality_num2000_9999,municipality_num10000,city_num,region,urban_inhabitants_proportion,medium_salary
1,0.29,0.43,167,2021-01-21,85677,99107,1990-01-01,Hl.m. Praha,1204953,0,0,0,1,1,Prague,100,12541
10,0.56,0.54,141,2021-01-21,3810,4316,1990-01-01,Praha - vychod,92084,55,29,4,3,5,central Bohemia,46.7,10124
11,0.45,0.59,154,2021-01-21,3475,3529,1990-01-01,Praha - zapad,75637,35,36,9,0,7,central Bohemia,36.5,9622
12,3.83,4.31,137,2021-01-21,3804,3868,1990-01-01,Pribram,107870,84,29,6,1,6,central Bohemia,58,8754
13,2.77,3.26,123,2021-01-21,1597,1875,1990-01-01,Rakovnik,53921,61,22,1,1,2,central Bohemia,41.3,8598
14,1.42,1.71,135,2021-01-21,6604,6295,1990-01-01,Ceske Budejovice,177686,69,27,10,1,9,south Bohemia,74.8,10045
15,3.13,3.6,124,2021-01-21,1845,1879,1990-01-01,Cesky Krumlov,58796,22,16,7,1,5,south Bohemia,51.9,9045
16,1.12,1.54,107,2021-01-21,1874,1913,1990-01-01,Jindrichuv Hradec,93931,74,21,10,1,8,south Bohemia,56.9,8427
17,2.38,2.62,119,2021-01-21,1003,1181,1990-01-01,Pelhrimov,74062,99,15,4,2,7,south Bohemia,61.4,8114
18,2.83,3.35,131,2021-01-21,1740,1910,1990-01-01,Pisek,70699,60,13,2,1,4,south Bohemia,65.3,8968
19,3.13,3.98,120,2021-01-21,999,1099,1990-01-01,Prachatice,51428,50,11,3,1,4,south Bohemia,52.7,8402
2,1.67,1.85,132,2021-01-21,2159,2674,1990-01-01,Benesov,88884,80,26,6,2,5,central Bohemia,46.7,8507
20,2.65,3.64,120,2021-01-21,1563,1542,1990-01-01,Strakonice,70646,94,14,3,1,4,south Bohemia,58.4,8547
21,1.51,2.07,123,2021-01-21,2299,2354,1990-01-01,Tabor,103347,87,16,7,1,7,south Bohemia,67,9104
22,1.1,1.25,100,2021-01-21,1089,1117,1990-01-01,Domazlice,58400,65,16,4,1,6,west Bohemia,52.4,8620
23,1.79,2.66,102,2021-01-21,2879,3198,1990-01-01,Cheb,87419,21,11,4,3,9,west Bohemia,85.5,8624
24,1.39,2.01,128,2021-01-21,5198,5273,1990-01-01,Karlovy Vary,122603,25,21,6,2,8,west Bohemia,80,8991
25,2.47,2.68,113,2021-01-21,1822,2218,1990-01-01,Klatovy,88757,60,33,3,2,10,west Bohemia,61.7,8554
26,2.64,3.09,131,2021-01-21,6041,6261,1990-01-01,Plzen - mesto,170449,0,0,0,1,1,west Bohemia,100,10787
27,0.65,1.29,110,2021-01-21,1029,1127,1990-01-01,Plzen - jih,67298,71,19,10,0,7,west Bohemia,43.8,8561
28,1.62,2.01,112,2021-01-21,1580,1525,1990-01-01,Plzen - sever,72541,66,26,10,0,8,west Bohemia,36.9,8594
29,2.82,3.6,113,2021-01-21,818,888,1990-01-01,Rokycany,45714,52,10,5,1,6,west Bohemia,55.6,8843
3,1.95,2.21,111,2021-01-21,2824,2813,1990-01-01,Beroun,75232,55,26,4,1,5,central Bohemia,41.7,8980
30,3.38,3.67,100,2021-01-21,2985,2804,1990-01-01,Sokolov,94812,15,13,8,2,10,west Bohemia,81.8,9650
31,3.52,4.2,108,2021-01-21,1328,1452,1990-01-01,Tachov,51313,34,12,3,1,4,west Bohemia,59.2,8930
32,2.8,3.22,118,2021-01-21,4340,4505,1990-01-01,Ceska Lipa,105058,32,19,7,2,10,north Bohemia,81,9272
33,5.75,7.61,116,2021-01-21,4650,4859,1990-01-01,Decin,133777,24,17,7,3,11,north Bohemia,84.7,8705
34,6.43,7.68,100,2021-01-21,5323,5190,1990-01-01,Chomutov,125236,28,11,1,4,5,north Bohemia,87.7,9675
35,1.02,1.21,130,2021-01-21,3384,3620,1990-01-01,Jablonec n. Nisou,88768,10,18,5,1,7,north Bohemia,80.5,8867
36,3.33,4.28,131,2021-01-21,5796,6132,1990-01-01,Liberec,159617,29,19,8,1,9,north Bohemia,85.2,9198
37,4.46,5.39,123,2021-01-21,4147,4166,1990-01-01,Litomerice,114006,71,26,6,2,9,north Bohemia,62.3,9065
38,7.08,8.23,104,2021-01-21,2653,2822,1990-01-01,Louny,85852,41,23,4,2,4,north Bohemia,59.8,8965
39,7.34,9.4,90,2021-01-21,4947,4743,1990-01-01,Most,119895,17,4,3,2,4,north Bohemia,89.9,10446
4,4.64,5.05,109,2021-01-21,5244,5892,1990-01-01,Kladno,149893,63,29,6,2,6,central Bohemia,67.4,9753
40,6.49,7.07,97,2021-01-21,6949,6872,1990-01-01,Teplice,128118,9,16,6,3,8,north Bohemia,85.3,9317
41,3.32,4.48,114,2021-01-21,6445,5471,1990-01-01,Usti nad Labem,118650,8,8,5,1,3,north Bohemia,85.6,9832
42,2.41,2.94,87,2021-01-21,1658,1668,1990-01-01,Havlickuv Brod,95907,87,25,5,2,7,east Bohemia,59.1,8388
43,1.72,2.5,125,2021-01-21,4085,3891,1990-01-01,Hradec Kralove,161854,73,21,6,1,6,east Bohemia,76.3,9425
44,2.79,3.76,97,2021-01-21,2166,2325,1990-01-01,Chrudim,105606,77,26,7,2,7,east Bohemia,53,8254
45,2.28,2.89,132,2021-01-21,2080,2122,1990-01-01,Jicin,77917,85,19,6,1,5,east Bohemia,53.5,8390
46,1.79,2.31,117,2021-01-21,2854,2618,1990-01-01,Nachod,112709,48,20,7,3,10,east Bohemia,73.5,8369
47,1.51,1.81,111,2021-01-21,6079,5410,1990-01-01,Pardubice,162580,83,26,5,1,6,east Bohemia,72.8,9538
48,1.78,2.44,124,2021-01-21,1655,1717,1990-01-01,Rychnov nad Kneznou,78955,50,24,8,1,9,east Bohemia,59,9060
49,1.89,2.26,155,2021-01-21,1660,2123,1990-01-01,Semily,75685,31,28,5,1,9,east Bohemia,60.8,8208
5,3.85,4.43,118,2021-01-21,2616,3040,1990-01-01,Kolin,95616,65,30,4,1,6,central Bohemia,51.4,9307
50,4.83,5.45,94,2021-01-21,2123,2134,1990-01-01,Svitavy,102609,75,33,2,3,6,east Bohemia,52,8187
51,2.51,2.97,131,2021-01-21,3496,3839,1990-01-01,Trutnov,121947,37,28,7,3,11,east Bohemia,70.5,8541
52,2.52,3.49,108,2021-01-21,2564,2799,1990-01-01,Usti nad Orlici,139012,59,41,8,3,10,east Bohemia,61.9,8363
53,2.53,3.56,99,2021-01-21,1850,1903,1990-01-01,Blansko,107911,88,33,6,2,7,south Moravia,50.9,8240
54,1.6,1.96,140,2021-01-21,18721,18696,1990-01-01,Brno - mesto,387570,0,0,0,1,1,south Moravia,100,9897
55,1.88,2.43,111,2021-01-21,3659,3894,1990-01-01,Brno - venkov,157042,49,70,18,0,9,south Moravia,33.9,8743
56,4.69,4.98,126,2021-01-21,2854,3158,1990-01-01,Breclav,124605,11,42,14,1,8,south Moravia,46,8772
57,3.73,4.5,116,2021-01-21,3729,3651,1990-01-01,Hodonin,161954,21,37,20,3,8,south Moravia,48,8720
58,3.38,3.95,96,2021-01-21,2212,2471,1990-01-01,Jihlava,109164,98,16,6,1,4,south Moravia,63.6,8757
59,3.24,3.47,106,2021-01-21,2595,2305,1990-01-01,Kromeriz,108871,41,29,7,2,6,south Moravia,62.1,8444
6,2.95,4.02,126,2021-01-21,2640,3120,1990-01-01,Kutna Hora,77963,60,23,4,2,4,central Bohemia,51.5,8546
60,3.45,4.48,115,2021-01-21,1879,2252,1990-01-01,Prostejov,110643,49,41,4,1,4,south Moravia,51.9,8441
61,4.76,5.74,107,2021-01-21,2112,2059,1990-01-01,Trebic,117897,139,28,5,1,6,south Moravia,53.8,8814
62,1.29,1.86,109,2021-01-21,2719,2906,1990-01-01,Uherske Hradiste,145688,22,41,13,2,5,south Moravia,40.7,8544
63,3.79,4.52,110,2021-01-21,1562,1460,1990-01-01,Vyskov,86513,38,36,5,1,5,south Moravia,50.5,8288
64,1.6,2.31,145,2021-01-21,4484,4265,1990-01-01,Zlin,197099,29,41,10,2,10,south Moravia,74.7,9624
65,5.74,5.72,105,2021-01-21,2157,2718,1990-01-01,Znojmo,114200,101,41,4,1,4,south Moravia,43.7,8403
66,3.51,4.12,102,2021-01-21,2247,2103,1990-01-01,Zdar nad Sazavou,125832,151,41,2,3,5,south Moravia,48.3,8512
67,5.77,6.55,109,2021-01-21,3244,3079,1990-01-01,Bruntal,106054,38,25,6,2,6,north Moravia,63.1,8110
68,4.09,4.72,96,2021-01-21,5623,5887,1990-01-01,Frydek - Mistek,228848,15,40,18,2,6,north Moravia,57.2,9893
69,0,7.01,124,2021-01-21,0,1358,1990-01-01,Jesenik,42821,4,13,5,1,3,north Moravia,48.4,8173
7,2.26,2.87,130,2021-01-21,4289,4846,1990-01-01,Melnik,94725,38,28,1,3,6,central Bohemia,63.4,9920
70,6.63,7.75,81,2021-01-21,9878,10108,1990-01-01,Karvina,285387,0,2,8,5,7,north Moravia,89.9,10177
71,5.93,5.57,102,2021-01-21,4980,4595,1990-01-01,Novy Jicin,161227,5,35,11,4,10,north Moravia,69.7,8678
72,3.8,4.79,110,2021-01-21,9672,9208,1990-01-01,Olomouc,226122,32,50,7,4,4,north Moravia,62.6,8994
73,3.33,3.74,90,2021-01-21,4355,4433,1990-01-01,Opava,182027,17,49,12,2,7,north Moravia,56.4,8746
74,4.75,5.44,100,2021-01-21,18782,18347,1990-01-01,Ostrava - mesto,323870,0,0,0,1,1,north Moravia,100,10673
75,5.38,5.66,99,2021-01-21,4063,4505,1990-01-01,Prerov,138032,67,30,4,2,5,north Moravia,64.6,8819
76,4.73,5.88,107,2021-01-21,3736,2807,1990-01-01,Sumperk,127369,31,32,13,2,7,north Moravia,51.2,8369
77,4.01,5.56,113,2021-01-21,3460,3590,1990-01-01,Vsetin,148545,8,35,12,3,4,north Moravia,53.5,8909
8,1.25,1.44,127,2021-01-21,5179,4987,1990-01-01,Mlada Boleslav,112065,95,19,7,1,8,central Bohemia,69.4,11277
9,3.39,3.97,149,2021-01-21,2987,2487,1990-01-01,Nymburk,81344,61,23,4,2,6,central Bohemia,55.3,8899
